{
    "data": [
        {
            "id": "8ca19681-951f-4192-96f8-e14bd20ba6af",
            "dapilID": "ba3162cf-b0fb-40a9-90f1-be59c2866ae4",
            "gender": "f",
            "info": {},
            "name": "EMILDA NARCIS BAFADAL",
            "path": "emilda-narcis-bafadal",
            "partyID": "f5a8eca6-465e-4ce0-980e-5c3a30c67eb6",
            "picUrl": "https://infopemilu.kpu.go.id/dct/berkas-silon/calon/264215/pas_foto/1683782734_c7bbd9d6-91bc-476b-8d23-285ef0f696c0.jpeg",
            "status": "D",
            "point": 0,
            "noKpu": "12405",
            "title": "Caleg DPRD Kabupaten/Kota",
            "dapil": {
                "name": "Sumbawa Barat 1"
            },
            "party": {
                "code": "UMMAT",
                "path": "partai-ummat",
                "level": "Partai",
                "logoUrl": "https://goodkind-bucket04939-dev.s3.ap-southeast-1.amazonaws.com/public/assets/constant/partai/24/Ummat.svg",
                "id": "f5a8eca6-465e-4ce0-980e-5c3a30c67eb6",
                "name": "Partai Ummat"
            },
            "score": 9.383646127385123,
            "leaderIssues": []
        },
        {
            "id": "97d1a913-a056-4a4a-a50f-680e867896db",
            "dapilID": "ba3162cf-b0fb-40a9-90f1-be59c2866ae4",
            "gender": "m",
            "info": {},
            "name": "SYAHABUDDIN UNDU",
            "path": "syahabuddin-undu",
            "partyID": "f5a8eca6-465e-4ce0-980e-5c3a30c67eb6",
            "picUrl": "https://infopemilu.kpu.go.id/dct/berkas-silon/calon/169772/pas_foto/1683699509_5e32404e-0a8e-4116-8af3-2cf985863bed.jpeg",
            "status": "D",
            "point": 0,
            "noKpu": "12406",
            "title": "Caleg DPRD Kabupaten/Kota",
            "dapil": {
                "name": "Sumbawa Barat 1"
            },
            "party": {
                "code": "UMMAT",
                "path": "partai-ummat",
                "level": "Partai",
                "logoUrl": "https://goodkind-bucket04939-dev.s3.ap-southeast-1.amazonaws.com/public/assets/constant/partai/24/Ummat.svg",
                "id": "f5a8eca6-465e-4ce0-980e-5c3a30c67eb6",
                "name": "Partai Ummat"
            },
            "score": 9.383646127385123,
            "leaderIssues": []
        },
        {
            "id": "aaf1e92f-97cd-407b-a601-d6327c43d182",
            "dapilID": "ba3162cf-b0fb-40a9-90f1-be59c2866ae4",
            "gender": "f",
            "info": {},
            "name": "SAFITRI APRINESIA, AMG.",
            "path": "safitri-aprinesia-amg",
            "partyID": "ce5b7e3e-1a34-4946-9bca-e673be0b353b",
            "picUrl": "https://infopemilu.kpu.go.id/dct/berkas-silon/calon/55890/pas_foto/1688916146_bd032a35-0a11-4280-b5d8-914a26c45be7.jpeg",
            "status": "D",
            "point": 0,
            "noKpu": "11709",
            "title": "Caleg DPRD Kabupaten/Kota",
            "dapil": {
                "name": "Sumbawa Barat 1"
            },
            "party": {
                "code": "PPP",
                "path": "partai-persatuan-pembangunan",
                "level": "Partai",
                "logoUrl": "https://goodkind-bucket04939-dev.s3.ap-southeast-1.amazonaws.com/public/assets/constant/partai/17/PPP.svg",
                "id": "ce5b7e3e-1a34-4946-9bca-e673be0b353b",
                "name": "Partai Persatuan Pembangunan"
            },
            "score": 9.383646127385123,
            "leaderIssues": []
        },
        {
            "id": "7707cdf2-0029-43da-9a27-acd486edb655",
            "dapilID": "ba3162cf-b0fb-40a9-90f1-be59c2866ae4",
            "gender": "m",
            "info": {},
            "name": "IKRAMULLAH",
            "path": "ikramullah",
            "partyID": "ce5b7e3e-1a34-4946-9bca-e673be0b353b",
            "picUrl": "https://infopemilu.kpu.go.id/dct/berkas-silon/calon/55174/pas_foto/1691653507_ddafc6af-ccb4-4f10-9b1d-9c7cc4eaf12d.jpeg",
            "status": "D",
            "point": 0,
            "noKpu": "11707",
            "title": "Caleg DPRD Kabupaten/Kota",
            "dapil": {
                "name": "Sumbawa Barat 1"
            },
            "party": {
                "code": "PPP",
                "path": "partai-persatuan-pembangunan",
                "level": "Partai",
                "logoUrl": "https://goodkind-bucket04939-dev.s3.ap-southeast-1.amazonaws.com/public/assets/constant/partai/17/PPP.svg",
                "id": "ce5b7e3e-1a34-4946-9bca-e673be0b353b",
                "name": "Partai Persatuan Pembangunan"
            },
            "score": 9.383646127385123,
            "leaderIssues": []
        },
        {
            "id": "937e152d-f1e6-4921-80d4-39d770dea1bc",
            "dapilID": "ba3162cf-b0fb-40a9-90f1-be59c2866ae4",
            "gender": "m",
            "info": {},
            "name": "MULYADI",
            "path": "mulyadi-520701-17-10",
            "partyID": "ce5b7e3e-1a34-4946-9bca-e673be0b353b",
            "picUrl": "https://infopemilu.kpu.go.id/dct/berkas-silon/calon/55965/pas_foto/1683624726_79e183fd-d6a9-4b62-bb21-8ab80788b74b.jpeg",
            "status": "D",
            "point": 0,
            "noKpu": "11710",
            "title": "Caleg DPRD Kabupaten/Kota",
            "dapil": {
                "name": "Sumbawa Barat 1"
            },
            "party": {
                "code": "PPP",
                "path": "partai-persatuan-pembangunan",
                "level": "Partai",
                "logoUrl": "https://goodkind-bucket04939-dev.s3.ap-southeast-1.amazonaws.com/public/assets/constant/partai/17/PPP.svg",
                "id": "ce5b7e3e-1a34-4946-9bca-e673be0b353b",
                "name": "Partai Persatuan Pembangunan"
            },
            "score": 9.383646127385123,
            "leaderIssues": []
        },
        {
            "id": "ee1d2fa7-563a-4602-a22d-6c1be6b930bc",
            "dapilID": "ba3162cf-b0fb-40a9-90f1-be59c2866ae4",
            "gender": "m",
            "info": {},
            "name": "AHMAD, S.IP.",
            "path": "ahmad-sip",
            "partyID": "ce5b7e3e-1a34-4946-9bca-e673be0b353b",
            "picUrl": "https://infopemilu.kpu.go.id/dct/berkas-silon/calon/55396/pas_foto/1683213740_096c85ed-f458-49c5-b3d7-050d914417ca.jpeg",
            "status": "D",
            "point": 0,
            "noKpu": "11704",
            "title": "Caleg DPRD Kabupaten/Kota",
            "dapil": {
                "name": "Sumbawa Barat 1"
            },
            "party": {
                "code": "PPP",
                "path": "partai-persatuan-pembangunan",
                "level": "Partai",
                "logoUrl": "https://goodkind-bucket04939-dev.s3.ap-southeast-1.amazonaws.com/public/assets/constant/partai/17/PPP.svg",
                "id": "ce5b7e3e-1a34-4946-9bca-e673be0b353b",
                "name": "Partai Persatuan Pembangunan"
            },
            "score": 9.383646127385123,
            "leaderIssues": []
        },
        {
            "id": "8bd9224b-a7ea-41a7-b5e7-55d00b87d1c5",
            "dapilID": "ba3162cf-b0fb-40a9-90f1-be59c2866ae4",
            "gender": "f",
            "info": {},
            "name": "ROSI MULYANA",
            "path": "rosi-mulyana",
            "partyID": "f5a8eca6-465e-4ce0-980e-5c3a30c67eb6",
            "picUrl": "https://infopemilu.kpu.go.id/dct/berkas-silon/calon/267509/pas_foto/1683787860_02daa9cb-8143-4803-a367-953e66923a6b.jpeg",
            "status": "D",
            "point": 0,
            "noKpu": "12404",
            "title": "Caleg DPRD Kabupaten/Kota",
            "dapil": {
                "name": "Sumbawa Barat 1"
            },
            "party": {
                "code": "UMMAT",
                "path": "partai-ummat",
                "level": "Partai",
                "logoUrl": "https://goodkind-bucket04939-dev.s3.ap-southeast-1.amazonaws.com/public/assets/constant/partai/24/Ummat.svg",
                "id": "f5a8eca6-465e-4ce0-980e-5c3a30c67eb6",
                "name": "Partai Ummat"
            },
            "score": 9.383646127385123,
            "leaderIssues": []
        },
        {
            "id": "2132af54-c368-48e9-b712-614086c1e4fe",
            "dapilID": "ba3162cf-b0fb-40a9-90f1-be59c2866ae4",
            "gender": "m",
            "info": {},
            "name": "ARIF KURNIAWAN, S.Kom.",
            "path": "arif-kurniawan-skom",
            "partyID": "ce5b7e3e-1a34-4946-9bca-e673be0b353b",
            "picUrl": "https://infopemilu.kpu.go.id/dct/berkas-silon/calon/55793/pas_foto/1683623371_bb4c95a6-d256-4c5f-9947-979e58b7d63f.jpeg",
            "status": "D",
            "point": 0,
            "noKpu": "11708",
            "title": "Caleg DPRD Kabupaten/Kota",
            "dapil": {
                "name": "Sumbawa Barat 1"
            },
            "party": {
                "code": "PPP",
                "path": "partai-persatuan-pembangunan",
                "level": "Partai",
                "logoUrl": "https://goodkind-bucket04939-dev.s3.ap-southeast-1.amazonaws.com/public/assets/constant/partai/17/PPP.svg",
                "id": "ce5b7e3e-1a34-4946-9bca-e673be0b353b",
                "name": "Partai Persatuan Pembangunan"
            },
            "score": 9.383646127385123,
            "leaderIssues": []
        },
        {
            "id": "9081ef0b-eee1-4ab6-835b-6c5fb2bdbb1b",
            "dapilID": "ba3162cf-b0fb-40a9-90f1-be59c2866ae4",
            "gender": "m",
            "info": {},
            "name": "LUKMANULHAKIM, S.P.",
            "path": "lukmanulhakim-sp",
            "partyID": "ce5b7e3e-1a34-4946-9bca-e673be0b353b",
            "picUrl": "https://infopemilu.kpu.go.id/dct/berkas-silon/calon/55617/pas_foto/1683214659_ec657c63-cd19-4f89-9eb5-429cd1f410e9.jpeg",
            "status": "D",
            "point": 0,
            "noKpu": "11705",
            "title": "Caleg DPRD Kabupaten/Kota",
            "dapil": {
                "name": "Sumbawa Barat 1"
            },
            "party": {
                "code": "PPP",
                "path": "partai-persatuan-pembangunan",
                "level": "Partai",
                "logoUrl": "https://goodkind-bucket04939-dev.s3.ap-southeast-1.amazonaws.com/public/assets/constant/partai/17/PPP.svg",
                "id": "ce5b7e3e-1a34-4946-9bca-e673be0b353b",
                "name": "Partai Persatuan Pembangunan"
            },
            "score": 9.383646127385123,
            "leaderIssues": []
        },
        {
            "id": "38387457-d0a5-4709-a3ee-76bd9344ac24",
            "dapilID": "ba3162cf-b0fb-40a9-90f1-be59c2866ae4",
            "gender": "f",
            "info": {},
            "name": "ROSIANA",
            "path": "rosiana",
            "partyID": "f5a8eca6-465e-4ce0-980e-5c3a30c67eb6",
            "picUrl": "https://infopemilu.kpu.go.id/dct/berkas-silon/calon/169784/pas_foto/1683681063_7cb38289-8c95-499a-a1b6-c61c563c6982.jpeg",
            "status": "D",
            "point": 0,
            "noKpu": "12402",
            "title": "Caleg DPRD Kabupaten/Kota",
            "dapil": {
                "name": "Sumbawa Barat 1"
            },
            "party": {
                "code": "UMMAT",
                "path": "partai-ummat",
                "level": "Partai",
                "logoUrl": "https://goodkind-bucket04939-dev.s3.ap-southeast-1.amazonaws.com/public/assets/constant/partai/24/Ummat.svg",
                "id": "f5a8eca6-465e-4ce0-980e-5c3a30c67eb6",
                "name": "Partai Ummat"
            },
            "score": 9.383646127385123,
            "leaderIssues": []
        },
        {
            "id": "dc0c68b4-c6e1-4fb7-b2f0-12f51916033c",
            "dapilID": "ba3162cf-b0fb-40a9-90f1-be59c2866ae4",
            "gender": "f",
            "info": {},
            "name": "EGA ERLINA",
            "path": "ega-erlina",
            "partyID": "ce5b7e3e-1a34-4946-9bca-e673be0b353b",
            "picUrl": "https://infopemilu.kpu.go.id/dct/berkas-silon/calon/55716/pas_foto/1683623256_96a809f7-fc0f-44b8-a0bf-3808aa6cc72b.jpeg",
            "status": "D",
            "point": 0,
            "noKpu": "11706",
            "title": "Caleg DPRD Kabupaten/Kota",
            "dapil": {
                "name": "Sumbawa Barat 1"
            },
            "party": {
                "code": "PPP",
                "path": "partai-persatuan-pembangunan",
                "level": "Partai",
                "logoUrl": "https://goodkind-bucket04939-dev.s3.ap-southeast-1.amazonaws.com/public/assets/constant/partai/17/PPP.svg",
                "id": "ce5b7e3e-1a34-4946-9bca-e673be0b353b",
                "name": "Partai Persatuan Pembangunan"
            },
            "score": 9.383646127385123,
            "leaderIssues": []
        },
        {
            "id": "ce1e3d07-9bff-42d1-a782-cb20da868187",
            "dapilID": "ba3162cf-b0fb-40a9-90f1-be59c2866ae4",
            "gender": "m",
            "info": {},
            "name": "Drs. BUDIMAN",
            "path": "drs-budiman",
            "partyID": "f5a8eca6-465e-4ce0-980e-5c3a30c67eb6",
            "picUrl": "https://infopemilu.kpu.go.id/dct/berkas-silon/calon/207046/pas_foto/1683771047_3c0e284b-0b35-450f-9079-8f160205b336.jpeg",
            "status": "D",
            "point": 0,
            "noKpu": "12401",
            "title": "Caleg DPRD Kabupaten/Kota",
            "dapil": {
                "name": "Sumbawa Barat 1"
            },
            "party": {
                "code": "UMMAT",
                "path": "partai-ummat",
                "level": "Partai",
                "logoUrl": "https://goodkind-bucket04939-dev.s3.ap-southeast-1.amazonaws.com/public/assets/constant/partai/24/Ummat.svg",
                "id": "f5a8eca6-465e-4ce0-980e-5c3a30c67eb6",
                "name": "Partai Ummat"
            },
            "score": 9.383646127385123,
            "leaderIssues": []
        },
        {
            "id": "f8d24a31-55bb-45c6-8abe-e6daa7918008",
            "dapilID": "ba3162cf-b0fb-40a9-90f1-be59c2866ae4",
            "gender": "m",
            "info": {},
            "name": "HALIDI KARTANA",
            "path": "halidi-kartana",
            "partyID": "f5a8eca6-465e-4ce0-980e-5c3a30c67eb6",
            "picUrl": "https://infopemilu.kpu.go.id/dct/berkas-silon/calon/190091/pas_foto/1688829407_acb62ada-22ce-4917-b504-c435a6d4bc42.jpeg",
            "status": "D",
            "point": 0,
            "noKpu": "12403",
            "title": "Caleg DPRD Kabupaten/Kota",
            "dapil": {
                "name": "Sumbawa Barat 1"
            },
            "party": {
                "code": "UMMAT",
                "path": "partai-ummat",
                "level": "Partai",
                "logoUrl": "https://goodkind-bucket04939-dev.s3.ap-southeast-1.amazonaws.com/public/assets/constant/partai/24/Ummat.svg",
                "id": "f5a8eca6-465e-4ce0-980e-5c3a30c67eb6",
                "name": "Partai Ummat"
            },
            "score": 9.383646127385123,
            "leaderIssues": []
        },
        {
            "id": "532568a3-cf47-4b36-a91a-28051c2f0b49",
            "dapilID": "ba3162cf-b0fb-40a9-90f1-be59c2866ae4",
            "gender": "m",
            "info": {},
            "name": "HAERON",
            "path": "haeron",
            "partyID": "082b1d18-0dbe-4415-89db-c97671aab21f",
            "picUrl": "https://infopemilu.kpu.go.id/dct/berkas-silon/calon/70764/pas_foto/1683381822_0d59cc3b-5e9b-4a33-86b2-9522f4f2288f.jpeg",
            "status": "D",
            "point": 0,
            "noKpu": "10205",
            "title": "Caleg DPRD Kabupaten/Kota",
            "dapil": {
                "name": "Sumbawa Barat 1"
            },
            "party": {
                "code": "GERINDRA",
                "path": "partai-gerakan-indonesia-raya",
                "level": "Partai",
                "logoUrl": "https://goodkind-bucket04939-dev.s3.ap-southeast-1.amazonaws.com/public/assets/constant/partai/2/Gerindra.svg",
                "id": "082b1d18-0dbe-4415-89db-c97671aab21f",
                "name": "Partai Gerakan Indonesia Raya"
            },
            "score": 9.383646127385123,
            "leaderIssues": []
        },
        {
            "id": "bf65611e-14cd-4f70-9d16-6f1c34f138bf",
            "dapilID": "ba3162cf-b0fb-40a9-90f1-be59c2866ae4",
            "gender": "m",
            "info": {},
            "name": "ZAENAL ARIFIN",
            "path": "zaenal-arifin-520701-07-07",
            "partyID": "d4439646-b407-48f2-a334-71e8c4265aa2",
            "picUrl": "https://infopemilu.kpu.go.id/dct/berkas-silon/calon/409982/pas_foto/1688776609_105c789e-f662-467a-af77-3abdeb5f09fd.jpeg",
            "status": "D",
            "point": 0,
            "noKpu": "10707",
            "title": "Caleg DPRD Kabupaten/Kota",
            "dapil": {
                "name": "Sumbawa Barat 1"
            },
            "party": {
                "code": "GELORA",
                "path": "partai-gelora",
                "level": "Partai",
                "logoUrl": "https://goodkind-bucket04939-dev.s3.ap-southeast-1.amazonaws.com/public/assets/constant/partai/7/Gelora.svg",
                "id": "d4439646-b407-48f2-a334-71e8c4265aa2",
                "name": "Partai Gelombang Rakyat Indonesia"
            },
            "score": 9.383646127385123,
            "leaderIssues": []
        },
        {
            "id": "4deffe1a-f0b5-4a56-a27f-5476528b0e51",
            "dapilID": "ba3162cf-b0fb-40a9-90f1-be59c2866ae4",
            "gender": "f",
            "info": {},
            "name": "MERLIZA, S.Sos.I., M.M.",
            "path": "merliza-ssosi-mm",
            "partyID": "082b1d18-0dbe-4415-89db-c97671aab21f",
            "picUrl": "https://infopemilu.kpu.go.id/dct/berkas-silon/calon/68644/pas_foto/1683384667_9a1b257b-d748-428e-b13a-a8827eea9a18.jpeg",
            "status": "D",
            "point": 0,
            "noKpu": "10201",
            "title": "Caleg DPRD Kabupaten/Kota",
            "dapil": {
                "name": "Sumbawa Barat 1"
            },
            "party": {
                "code": "GERINDRA",
                "path": "partai-gerakan-indonesia-raya",
                "level": "Partai",
                "logoUrl": "https://goodkind-bucket04939-dev.s3.ap-southeast-1.amazonaws.com/public/assets/constant/partai/2/Gerindra.svg",
                "id": "082b1d18-0dbe-4415-89db-c97671aab21f",
                "name": "Partai Gerakan Indonesia Raya"
            },
            "score": 9.383646127385123,
            "leaderIssues": []
        },
        {
            "id": "3272e4eb-177f-4e14-80ed-0f0a33631678",
            "dapilID": "ba3162cf-b0fb-40a9-90f1-be59c2866ae4",
            "gender": "m",
            "info": {},
            "name": "ZULKARNAEN",
            "path": "zulkarnaen-520701-03-07",
            "partyID": "8ce0445a-17bb-436d-b342-2e9eae9facc4",
            "picUrl": "https://infopemilu.kpu.go.id/dct/berkas-silon/calon_unggah/10027/pas_foto/5207021212840001.jpg",
            "status": "D",
            "point": 0,
            "noKpu": "10307",
            "title": "Caleg DPRD Kabupaten/Kota",
            "dapil": {
                "name": "Sumbawa Barat 1"
            },
            "party": {
                "code": "PDIP",
                "path": "partai-demokrasi-indonesia-perjuangan",
                "level": "Partai",
                "logoUrl": "https://goodkind-bucket04939-dev.s3.ap-southeast-1.amazonaws.com/public/assets/constant/partai/3/PDIP.svg",
                "id": "8ce0445a-17bb-436d-b342-2e9eae9facc4",
                "name": "Partai Demokrasi Indonesia Perjuangan"
            },
            "score": 9.383646127385123,
            "leaderIssues": []
        },
        {
            "id": "ac490d52-6c45-4ded-9fe4-1dc46f18bd2d",
            "dapilID": "ba3162cf-b0fb-40a9-90f1-be59c2866ae4",
            "gender": "f",
            "info": {},
            "name": "FATIMAH, S.E.Sy.",
            "path": "fatimah-sesy",
            "partyID": "2c72856a-0c0c-4afb-9d31-73a96845eb4f",
            "picUrl": "https://infopemilu.kpu.go.id/dct/berkas-silon/calon/51826/pas_foto/1688662270_b00b8023-806f-4b17-81ae-a919734c973c.jpeg",
            "status": "D",
            "point": 0,
            "noKpu": "11405",
            "title": "Caleg DPRD Kabupaten/Kota",
            "dapil": {
                "name": "Sumbawa Barat 1"
            },
            "party": {
                "code": "DEMOKRAT",
                "path": "partai-demokrat",
                "level": "Partai",
                "logoUrl": "https://goodkind-bucket04939-dev.s3.ap-southeast-1.amazonaws.com/public/assets/constant/partai/14/Demokrat.svg",
                "id": "2c72856a-0c0c-4afb-9d31-73a96845eb4f",
                "name": "Partai Demokrat"
            },
            "score": 9.383646127385123,
            "leaderIssues": []
        }
    ],
    "elapsed": {
        "raw": 90112747,
        "formatted": "90ms"
    },
    "paging": {
        "page": 1,
        "size": 18,
        "total": 123,
        "totalPage": 7
    },
    "searchMessage": "No search term provided.",
    "searchStatus": "",
    "status": "OK",
    "statusCode": 200
}